…
<img src="p8105_hw3_mtr2143_files/figure-gfm/col plot time of day and dow-1.png" width="90%" />

``` r
instacart %>% 
  select(department_id, department, aisle) %>% 
  distinct() %>% 
  group_by(department) %>% 
  summarize(
    num_aisle = n()
  ) %>% 
  arrange(desc(num_aisle))
```

    ## # A tibble: 21 × 2
    ##    department    num_aisle
    ##    <chr>             <int>
    ##  1 personal care        17
    ##  2 pantry               12
    ##  3 frozen               11
    ##  4 snacks               11
    ##  5 dairy eggs           10
    ##  6 household            10
    ##  7 beverages             8
    ##  8 meat seafood          7
    ##  9 alcohol               5
    ## 10 bakery                5
    ## # … with 11 more rows
…
